{
  "tracks" : {
    "href" : "https://api.spotify.com/v1/search?query=jams&offset=0&limit=20&type=track",
    "items" : [ {
      "album" : {
        "album_type" : "single",
        "available_markets" : [ "AD", "AR", "AT", "AU", "BE", "BG", "BO", "BR", "CA", "CH", "CL", "CO", "CR", "CY", "CZ", "DE", "DK", "DO", "EC", "EE", "ES", "FI", "FR", "GB", "GR", "GT", "HK", "HN", "HU", "IE", "IS", "IT", "LI", "LT", "LU", "LV", "MC", "MT", "MX", "MY", "NI", "NL", "NO", "NZ", "PA", "PE", "PH", "PL", "PT", "PY", "RO", "SE", "SG", "SI", "SK", "SV", "TR", "TW", "US", "UY" ],
        "external_urls" : {
          "spotify" : "https://open.spotify.com/album/0gL4FpZErR6BsdLKvpIkzD"
        },
        "href" : "https://api.spotify.com/v1/albums/0gL4FpZErR6BsdLKvpIkzD",
        "id" : "0gL4FpZErR6BsdLKvpIkzD",
        "images" : [ {
          "height" : 640,
          "url" : "https://i.scdn.co/image/81d13fbb4d885ed0e416b459e00b12f106e04d54",
          "width" : 640
        }, {
          "height" : 300,
          "url" : "https://i.scdn.co/image/5eebaefa04a57ee99bd922d8f50eecbd7c10ac0f",
          "width" : 300
        }, {
          "height" : 64,
          "url" : "https://i.scdn.co/image/0c98923e68c7969f8aa537d36cb8d4b811caa405",
          "width" : 64
        } ],
        "name" : "Hunger Games",
        "type" : "album",
        "uri" : "spotify:album:0gL4FpZErR6BsdLKvpIkzD"
      },
      "artists" : [ {
        "external_urls" : {
          "spotify" : "https://open.spotify.com/artist/1Q0yMJMDpQ2ye7gFcEIUR5"
        },
        "href" : "https://api.spotify.com/v1/artists/1Q0yMJMDpQ2ye7gFcEIUR5",
        "id" : "1Q0yMJMDpQ2ye7gFcEIUR5",
        "name" : "Minecraft Jams",
        "type" : "artist",
        "uri" : "spotify:artist:1Q0yMJMDpQ2ye7gFcEIUR5"
      } ],
      "available_markets" : [ "AD", "AR", "AT", "AU", "BE", "BG", "BO", "BR", "CA", "CH", "CL", "CO", "CR", "CY", "CZ", "DE", "DK", "DO", "EC", "EE", "ES", "FI", "FR", "GB", "GR", "GT", "HK", "HN", "HU", "IE", "IS", "IT", "LI", "LT", "LU", "LV", "MC", "MT", "MX", "MY", "NI", "NL", "NO", "NZ", "PA", "PE", "PH", "PL", "PT", "PY", "RO", "SE", "SG", "SI", "SK", "SV", "TR", "TW", "US", "UY" ],
      "disc_number" : 1,
      "duration_ms" : 203151,
      "explicit" : false,
      "external_ids" : {
        "isrc" : "ushm21595070"
      },
      "external_urls" : {
        "spotify" : "https://open.spotify.com/track/3Gsd9Dn5fxK6xsmFELLbYR"
      },
      "href" : "https://api.spotify.com/v1/tracks/3Gsd9Dn5fxK6xsmFELLbYR",
      "id" : "3Gsd9Dn5fxK6xsmFELLbYR",
      "name" : "Hunger Games",
      "popularity" : 39,
      "preview_url" : "https://p.scdn.co/mp3-preview/63e11a0de1fbf4cbf25734b12bdb81d5cde586a2",
      "track_number" : 1,
      "type" : "track",
      "uri" : "spotify:track:3Gsd9Dn5fxK6xsmFELLbYR"
    }],
    "limit" : 20,
    "next" : "https://api.spotify.com/v1/search?query=jams&offset=20&limit=20&type=track",
    "offset" : 0,
    "previous" : null,
    "total" : 18951
  }
}